<?xml version="1.0" encoding="utf-8"?>
<!-- Generator: Adobe Illustrator 24.1.1, SVG Export Plug-In . SVG Version: 6.00 Build 0)  -->
<svg version="1.1" id="Capa_1" xmlns="http://www.w3.org/2000/svg" xmlns:xlink="http://www.w3.org/1999/xlink" x="0px" y="0px"
	 viewBox="0 0 236.5 277" style="enable-background:new 0 0 236.5 277;" xml:space="preserve">
<style type="text/css">
	.st0{fill:#FDE2D4;}
	.st1{fill:#FFFFFF;}
</style>
<path class="st0" d="M138.5,94.3h-0.8c-17.5,0.4-31.5,14.8-31.3,32.4c0,0.8,0,1.5,0.1,2.2c-0.9-0.1-1.7-0.1-2.6-0.1h-0.6
	c-11.4,0.3-20.5,8-20.3,17.2c0.2,9.2,9.2,16.2,20.2,16.2h0.6c1.3,0,4.2,0,8.1,0c14.1,0,41.5,0.2,57,0.2c4.8,0,8.5,0,10.2,0
	c13.4-0.4,24-11.5,23.8-24.9c-0.2-13.1-10.9-23.7-24-23.7h-0.6c-3.4,0.1-6.8,0.9-9.9,2.4c-4.2-13-16.3-21.8-30-21.8L138.5,94.3z"/>
<path class="st1" d="M77.5,85.6c-11.3,0-21.4,7.3-24.9,18.1c-2.6-1.2-5.4-1.9-8.2-2h-0.5c-10.9,0-19.8,8.7-19.9,19.6
	c-0.2,11.1,8.6,20.3,19.8,20.6c1.5,0,4.5,0,8.5,0c12.9,0,35.6-0.2,47.3-0.2c3.2,0,5.6,0,6.7,0h0.5c9.2,0,16.6-5.9,16.8-13.4
	c0.1-7.5-7.4-14.1-16.9-14.3h-0.5c-0.7,0-1.4,0-2.2,0.1c0.1-0.6,0.1-1.2,0.1-1.9c0.2-14.5-11.4-26.5-25.9-26.8L77.5,85.6z"/>
</svg>
