{
  "public": {
    "document_webrtcUnsupportedText": "WebRTC no funciona. Esto puede suceder con ciertas configuraciones (por ejemplo el navegador Chrome en el iPhone), o con navegadores antiguos. Por favor int&eacute;ntalo con otro navegador",
    "document_displayErrors": true,
    "document_infoAlertShow": false,
    "document_infoAlertTwoSidedDocument": "Se fotografiar&aacute; el anverso y reverso",
    "document_obverseNotFoundText": "Coloca de frente tu identificaci&oacute;n y toca la pantalla para tomar la foto",
    "document_reverseNotFoundText": "Ahora dale la vuelta y toca la pantalla para tomar la foto",
    "document_manualCaptureEnableDelay": 6000,
    "document_manualCaptureText": "Si la foto no se toma sola toca el rect&aacute;ngulo",
    "document_manualCaptureTextMobile": "Toca la imagen para realizar la captura",
    "document_infoReviewImageText":"&iquest;Todos los datos son legibles? Si no es as&iacute;, t&oacute;mala de nuevo.",
    "document_detectionTimeout": 300000,
    "document_reviewImage": true,
    "document_repeatText": "Repetir foto",
    "document_continueText": "Continuar",
    "document_sdkBackgroundColorInactive": "#000000",
    "document_borderColorCenteringAidInactive": "#717171",
    "document_borderColorCenteringAidDefault": "transparent",
    "document_borderColorCenteringAidDetecting": "#00FF00",
    "document_borderColorCenteringAidDetectingSuccess": "#FFFFFF",
    "document_outerGlowCenteringAidDefault": "#000000",
    "document_outerGlowCenteringAidDetecting": "#001C00",
    "document_detectionMessageBackgroundColor": "#424242",
    "document_detectionMessageTextColor": "#FFFFFF",
    "document_confirmationDialogBackgroundColor": "#000000",
    "document_confirmationDialogTextColor": "#FFFFFF",
    "document_confirmationDialogButtonTextColor": "#FFFFFF",
    "document_confirmationDialogLinkTextColor": "#26BAB8",
    "document_confirmationDialogButtonBackgroundColor": "#12676F",
    "document_setLandscapeDeviceMessage": "Gira tu dispositivo en posici&oacute;n horizontal.",
    "document_setPortraitDeviceMessage": "Gira tu dispositivo en posici&oacute;n vertical.",
    "document_confirmationColorTick":"#63B468",
    "document_infoReviewBlurImageText":"&iexcl;Uy! Tu foto sale borrosa. Por favor, toma otra.",
    "document_blurThresholdDesktop":800,
    "document_blurThresholdMobile":600,
    "document_blurDetectorActive":true,
    "photo_webrtcUnsupportedText": "WebRTC no funciona. Esto puede suceder con ciertas configuraciones (por ejemplo el navegador Chrome en el iPhone), o con navegadores antiguos. Por favor int&eacute;ntalo con otro navegador",
    "photo_displayErrors": true,
    "photo_infoAlertShow": false,
    "photo_infoAlertPhotoSelfie": false,
    "photo_detectionTimeout": 300000,
    "photo_reviewImage": true,
    "photo_repeatText": "Repetir foto",
    "photo_continueText": "Continuar",
    "photo_sdkBackgroundColorInactive": "#000000",
    "photo_borderColorCenteringAidInactive": "#717171",
    "photo_borderColorCenteringAidDefault": "#FFFFFF",
    "photo_borderColorCenteringAidDetecting": "#00FF00",
    "photo_borderColorCenteringAidDetectingSuccess": "#FFFFFF",
    "photo_outerGlowCenteringAidDefault": "#000000",
    "photo_outerGlowCenteringAidDetecting": "#001C00",
    "photo_confirmationDialogBackgroundColor": "#000000",
    "photo_confirmationDialogTextColor": "#FFFFFF",
    "photo_confirmationDialogButtonTextColor": "#FFFFFF",
    "photo_confirmationDialogLinkTextColor": "#26BAB8",
    "photo_confirmationDialogButtonBackgroundColor": "#12676F",
    "photo_setLandscapeDeviceMessage": "Gira tu dispositivo en posici&oacute;n horizontal.",
    "photo_setPortraitDeviceMessage": "Gira tu dispositivo en posici&oacute;n vertical.",
    "photo_infoReviewImageText": "&iquest;Saliste con buena luz y enfoque?",
    "photo_smileRequestSmile": "Y ahora... sonr&iacute;a",
    "photo_smileRequestSerious": "Y ahora... serio",
    "photo_fitYourFace": " ",
    "video_recordingTimeStates": [
      5000,
      5000,
      5000
    ],
    "video_webrtcUnsupportedText": "WebRTC no funciona. Esto puede suceder con ciertas configuraciones (por ejemplo el navegador Chrome en el iPhone), o con navegadores antiguos. Por favor int&eacute;ntalo con otro navegador",
    "video_displayErrors": true,
    "video_infoAlertShow": false,
    "video_infoAlertVideoSelfie": "Video Selfie: tenga su documento cerca y siga las instrucciones",
    "video_infoFaceRecording": " ",
    "video_infoObverseRecording": " ",
    "video_infoReverseRecording": " ",
    "video_continueText": "Continuar",
    "video_sdkBackgroundColorInactive": "#000000",
    "video_borderColorCenteringAidInactive": "#000000",
    "video_borderColorCenteringAidDefault": "#FFFFFF",
    "video_detectionMessageBackgroundColor": "#000000",
    "video_borderColorCenteringAidDetecting": "#676564",
    "video_detectionMessageTextColor": "#FFFFFF",
    "video_confirmationDialogBackgroundColor": "#000000",
    "video_confirmationDialogTextColor": "#FFFFFF",
    "video_confirmationDialogLinkTextColor": "#26BAB8",
    "video_setLandscapeDeviceMessage": "Gira tu dispositivo en posici&oacute;n horizontal.",
    "video_setPortraitDeviceMessage": "Gira tu dispositivo en posici&oacute;n vertical.",
    "bioOnBoarding_intentos": 3,
    "token_minLength":5,
    "token_maxLength":7,
    "min_version_Chrome":79,
    "min_version_Opera":65,
    "min_version_Firefox":77,
    "min_version_Safari":9,
    "keyQuery": "token",
    "debug_console": true,
    "debug_alerts": false,
    "show_all_data":false,
    "debug_porcent_upload": true,
    "urlAndroidPermissions":"https://support.google.com/chrome/answer/2693767?co=GENIE.Platform%3DAndroid&hl=en&oco=1",
    "urlWindowsPermissions":"https://support.google.com/chrome/answer/2693767?co=GENIE.Platform%3DDesktop&hl=en&oco=1",
    "urlIosPermissions":"https://support.google.com/chrome/answer/2693767?co=GENIE.Platform%3DiOS&hl=en&oco=1",
    "modal_NotAllowedError_header":"Permisos denegados",
    "modal_NotAllowedError_body":"Para continuar el proceso, desde la configuraci&oacute;n de tu navegador conc&eacute;denos los permisos para hacer uso de tu c&aacute;mara web",
    "modal_NotAllowedError_btn":"De acuerdo",
    "modal_NotReadableError_header":"Error",
    "modal_NotReadableError_body":"No fue posible iniciar su c&aacute;mara web, revise que no exista otra aplicaci&oacute;n usandola",
    "modal_NotReadableError_btn":"De acuerdo",
    "modal_CancelaEnrolamiento_header":"&iquest;Est&aacute;s seguro de cancelar el proceso?",
    "modal_CancelaEnrolamiento_body":"Al cancelar no podr&aacute;s obtener tu cuenta, pero podr&aacute;s retomar el proceso m&aacute;s tarde",
    "modal_CancelaEnrolamiento_aceptar":"S&iacute;",
    "modal_CancelaEnrolamiento_cierra":"No",
    "modal_ErrorEnrolamiento_header":"Error",
    "modal_ErrorEnrolamiento_body":"Hubo un error al procesar su solicitud, por favor int&eacute;ntelo m&aacute;s tarde",
    "modal_ErrorEnrolamiento_cierra":"Salir"
  },
  "private": {
    "frontServices": {
      "server": "https://wapp-node.azurewebsites.net",
      "server2": "https://filterocr.herokuapp.com",
      "document": {
        "upload": "/uploadDocument",
        "getOCR":"/getOCR",
        "getSCORES":"/getSCORES",
        "timeOut": 1200000
      },
      "token": {
        "check": "/validaToken",
        "get": "/getToken",
        "timeOut": 1200000
      },
      "expediente": {
        "create": "/creaExpediente",
        "get": "/getExpediente",
        "getIdValidas": "/getIdValidas",
        "timeOut": 1200000
      },
      "selfie": {
        "upload": "/uploadSelfie",
        "timeOut": 1200000
      },
      "video": {
        "upload": "/creaVideo",
        "timeOut": 1200000
      },
      "chunks": {
        "chunksUpload": "/addFile",
        "chunksJoin": "/concatFile",
        "chunksSize": 524288,
        "simultaneousUploads": 1
      }
    }
  }
}
